simulation/qsim/lab6.msim.vcd
$comment
	File created using the following command:
		vcd file lab6.msim.vcd -direction
$end
$date
	Sat Dec 05 20:15:50 2020
$end
$version
	ModelSim Version 10.1d
$end
$timescale
	1ps
$end
$scope module stateMachine_vlg_vec_tst $end
$var reg 1 ! clk $end
$var reg 1 " data_in $end
$var reg 1 # reset $end
$var wire 1 $ current_state [3] $end
$var wire 1 % current_state [2] $end
$var wire 1 & current_state [1] $end
$var wire 1 ' current_state [0] $end
$var wire 1 ( student_id [3] $end
$var wire 1 ) student_id [2] $end
$var wire 1 * student_id [1] $end
$var wire 1 + student_id [0] $end
$var wire 1 , sampler $end
$scope module i1 $end
$var wire 1 - gnd $end
$var wire 1 . vcc $end
$var wire 1 / unknown $end
$var tri1 1 0 devclrn $end
$var tri1 1 1 devpor $end
$var tri1 1 2 devoe $end
$var wire 1 3 clk~combout $end
$var wire 1 4 clk~clkctrl_outclk $end
$var wire 1 5 yfsm.s2~feeder_combout $end
$var wire 1 6 reset~combout $end
$var wire 1 7 reset~clkctrl_outclk $end
$var wire 1 8 data_in~combout $end
$var wire 1 9 yfsm.s2~regout $end
$var wire 1 : yfsm.s0~0_combout $end
$var wire 1 ; yfsm.s0~regout $end
$var wire 1 < yfsm.s1~0_combout $end
$var wire 1 = yfsm.s1~regout $end
$var wire 1 > yfsm.s3~feeder_combout $end
$var wire 1 ? yfsm.s3~regout $end
$var wire 1 @ yfsm.s5~feeder_combout $end
$var wire 1 A yfsm.s5~regout $end
$var wire 1 B yfsm.s7~feeder_combout $end
$var wire 1 C yfsm.s7~regout $end
$var wire 1 D yfsm.s8~feeder_combout $end
$var wire 1 E yfsm.s8~regout $end
$var wire 1 F yfsm.s6~feeder_combout $end
$var wire 1 G yfsm.s6~regout $end
$var wire 1 H yfsm.s4~regout $end
$var wire 1 I WideOr10~0_combout $end
$var wire 1 J student_id~0_combout $end
$var wire 1 K WideOr9~combout $end
$var wire 1 L student_id~1_combout $end
$var wire 1 M WideOr13~0_combout $end
$var wire 1 N WideOr12~0_combout $end
$var wire 1 O WideOr11~combout $end
$upscope $end
$upscope $end
$enddefinitions $end
#0
$dumpvars
0!
1"
0#
0'
0&
0%
0$
1+
0*
1)
0(
x,
0-
1.
x/
10
11
12
03
04
05
06
07
18
09
1:
0;
1<
0=
0>
0?
0@
0A
0B
0C
0D
0E
0F
0G
0H
1I
0J
0K
1L
0M
0N
0O
$end
#10000
1!
13
14
0,
1=
1;
1M
1K
1>
0I
0<
1'
0+
0)
#20000
0!
03
04
1,
#30000
1!
13
14
0,
1?
0=
1N
1@
0>
1&
#40000
0!
03
04
1,
#50000
1!
13
14
0,
1A
0?
1O
0L
1I
1B
0N
0@
1%
1+
0&
1(
#60000
0!
03
04
1,
#70000
1!
13
14
0,
1C
0A
1N
1J
1D
1L
0K
0I
0B
1&
1*
0+
0(
1)
#80000
0!
03
04
1,
#90000
1!
13
14
0,
1E
0C
1I
1F
0O
0N
0M
0D
1$
1+
0%
0&
0'
#100000
0!
03
04
1,
#110000
1!
13
14
0,
1G
0E
1O
1N
0J
0I
0F
0$
1%
1&
0*
0+
#120000
0!
03
04
1,
#130000
1!
13
14
0,
1H
0G
0L
1K
1I
15
0N
1+
0&
1(
0)
#140000
0!
03
04
1,
#150000
1!
13
14
0,
0H
19
0O
1L
0K
0I
05
1N
0:
0%
0+
1&
0(
1)
#160000
0!
03
04
1,
#170000
1!
13
14
0,
0;
09
1I
1<
0N
1:
1+
0&
#180000
0!
03
04
1,
#190000
1!
13
14
0,
1=
1;
1M
1K
1>
0I
0<
1'
0+
0)
#200000
0!
03
04
1,
#210000
1!
13
14
0,
1?
0=
1N
1@
0>
1&
#220000
0!
03
04
1,
#230000
1!
13
14
0,
1A
0?
1O
0L
1I
1B
0N
0@
1%
1+
0&
1(
#240000
0!
03
04
1,
#250000
1!
13
14
0,
1C
0A
1N
1J
1D
1L
0K
0I
0B
1&
1*
0+
0(
1)
#260000
0!
03
04
1,
#270000
1!
13
14
0,
1E
0C
1I
1F
0O
0N
0M
0D
1$
1+
0%
0&
0'
#280000
0!
03
04
1,
#290000
1!
13
14
0,
1G
0E
1O
1N
0J
0I
0F
0$
1%
1&
0*
0+
#300000
0!
03
04
1,
#310000
1!
13
14
0,
1H
0G
0L
1K
1I
15
0N
1+
0&
1(
0)
#320000
0!
03
04
1,
#330000
1!
13
14
0,
0H
19
0O
1L
0K
0I
05
1N
0:
0%
0+
1&
0(
1)
#340000
0!
03
04
1,
#350000
1!
13
14
0,
0;
09
1I
1<
0N
1:
1+
0&
#360000
0!
03
04
1,
#370000
1!
13
14
0,
1=
1;
1M
1K
1>
0I
0<
1'
0+
0)
#380000
0!
03
04
1,
#390000
1!
13
14
0,
1?
0=
1N
1@
0>
1&
#400000
0!
03
04
1,
#410000
1!
13
14
0,
1A
0?
1O
0L
1I
1B
0N
0@
1%
1+
0&
1(
#420000
0!
03
04
1,
#430000
1!
13
14
0,
1C
0A
1N
1J
1D
1L
0K
0I
0B
1&
1*
0+
0(
1)
#440000
0!
03
04
1,
#450000
1!
13
14
0,
1E
0C
1I
1F
0O
0N
0M
0D
1$
1+
0%
0&
0'
#460000
0!
03
04
1,
#470000
1!
13
14
0,
1G
0E
1O
1N
0J
0I
0F
0$
1%
1&
0*
0+
#480000
0!
03
04
1,
#490000
1!
13
14
0,
1H
0G
0L
1K
1I
15
0N
1+
0&
1(
0)
#500000
0!
03
04
1,
#510000
1!
13
14
0,
0H
19
0O
1L
0K
0I
05
1N
0:
0%
0+
1&
0(
1)
#520000
0!
03
04
1,
#530000
1!
13
14
0,
0;
09
1I
1<
0N
1:
1+
0&
#540000
0!
03
04
1,
#550000
1!
13
14
0,
1=
1;
1M
1K
1>
0I
0<
1'
0+
0)
#560000
0!
03
04
1,
#570000
1!
13
14
0,
1?
0=
1N
1@
0>
1&
#580000
0!
03
04
1,
#590000
1!
13
14
0,
1A
0?
1O
0L
1I
1B
0N
0@
1%
1+
0&
1(
#600000
0!
03
04
1,
#610000
1!
13
14
0,
1C
0A
1N
1J
1D
1L
0K
0I
0B
1&
1*
0+
0(
1)
#620000
0!
03
04
1,
#630000
1!
13
14
0,
1E
0C
1I
1F
0O
0N
0M
0D
1$
1+
0%
0&
0'
#640000
0!
03
04
1,
#650000
1!
13
14
0,
1G
0E
1O
1N
0J
0I
0F
0$
1%
1&
0*
0+
#660000
0!
03
04
1,
#670000
1!
13
14
0,
1H
0G
0L
1K
1I
15
0N
1+
0&
1(
0)
#680000
0!
03
04
1,
#690000
1!
13
14
0,
0H
19
0O
1L
0K
0I
05
1N
0:
0%
0+
1&
0(
1)
#700000
0!
03
04
1,
#710000
1!
13
14
0,
0;
09
1I
1<
0N
1:
1+
0&
#720000
0!
03
04
1,
#730000
1!
13
14
0,
1=
1;
1M
1K
1>
0I
0<
1'
0+
0)
#740000
0!
03
04
1,
#750000
1!
13
14
0,
1?
0=
1N
1@
0>
1&
#760000
0!
03
04
1,
#770000
1!
13
14
0,
1A
0?
1O
0L
1I
1B
0N
0@
1%
1+
0&
1(
#780000
0!
03
04
1,
#790000
1!
13
14
0,
1C
0A
1N
1J
1D
1L
0K
0I
0B
1&
1*
0+
0(
1)
#800000
0!
03
04
1,
#810000
1!
13
14
0,
1E
0C
1I
1F
0O
0N
0M
0D
1$
1+
0%
0&
0'
#820000
0!
03
04
1,
#830000
1!
13
14
0,
1G
0E
1O
1N
0J
0I
0F
0$
1%
1&
0*
0+
#840000
0!
03
04
1,
#850000
1!
13
14
0,
1H
0G
0L
1K
1I
15
0N
1+
0&
1(
0)
#860000
0!
03
04
1,
#870000
1!
13
14
0,
0H
19
0O
1L
0K
0I
05
1N
0:
0%
0+
1&
0(
1)
#880000
0!
03
04
1,
#890000
1!
13
14
0,
0;
09
1I
1<
0N
1:
1+
0&
#900000
0!
03
04
1,
#910000
1!
13
14
0,
1=
1;
1M
1K
1>
0I
0<
1'
0+
0)
#920000
0!
03
04
1,
#930000
1!
13
14
0,
1?
0=
1N
1@
0>
1&
#940000
0!
03
04
1,
#950000
1!
13
14
0,
1A
0?
1O
0L
1I
1B
0N
0@
1%
1+
0&
1(
#960000
0!
03
04
1,
#970000
1!
13
14
0,
1C
0A
1N
1J
1D
1L
0K
0I
0B
1&
1*
0+
0(
1)
#980000
0!
03
04
1,
#990000
1!
13
14
0,
1E
0C
1I
1F
0O
0N
0M
0D
1$
1+
0%
0&
0'
